ProjetoCPU.vcd
$comment
Copyright (C) 1991-2010 Altera Corporation
Your use of Altera Corporation's design tools, logic functions 
and other software and tools, and its AMPP partner logic 
functions, and any output files from any of the foregoing 
(including device programming or simulation files), and any 
associated documentation or information are expressly subject 
to the terms and conditions of the Altera Program License 
Subscription Agreement, Altera MegaCore Function License 
Agreement, or other applicable license agreement, including, 
without limitation, that your use is for the sole purpose of 
programming logic devices manufactured by Altera and sold by 
Altera or its authorized distributors.  Please refer to the 
applicable agreement for further details.
$end

$date 
  10/16/2019 15:51:17 
$end
$version 
 QUARTUS_VCD_EXPORT 1.0 
$end
$timescale
  1 ps
$end
$scope module Hardware $end
$var reg 1 ! clk $end
$var reg 1 " ResetSignal $end
$var reg 7 # state[6:0] $end
$var reg 6 $ opcode[5:0] $end
$var reg 16 % Inst15a0[15:0] $end
$var reg 6 & funct[5:0] $end
$var reg 5 ' Inst20a16[4:0] $end
$var reg 5 ( Inst25a21[4:0] $end
$var reg 32 ) MDR[31:0] $end
$var reg 1 * PC_Write $end
$var reg 32 + PC[31:0] $end
$var reg 32 , EPC[31:0] $end
$var reg 32 - RegA[31:0] $end
$var reg 32 . RegB[31:0] $end
$var reg 32 / SrcA[31:0] $end
$var reg 32 0 SrcB[31:0] $end
$var reg 32 1 S[31:0] $end
$var reg 1 2 AluOutWritel $end
$var reg 32 3 ALUOut[31:0] $end
$var reg 5 4 ShiftAmtt[4:0] $end
$var reg 32 5 ShiftSrcc[31:0] $end
$var reg 32 6 ShiftResult[31:0] $end
$var reg 32 7 Jconcat[31:0] $end
$var reg 26 8 Instconcat[25:0] $end
$var reg 28 9 Shiftleftado[27:0] $end
$scope module Reg_Control $end
$var reg 32 : Reg17[31:0] $end
$var reg 32 ; Reg15[31:0] $end
$var reg 32 < Reg16[31:0] $end
$var reg 32 = Reg29[31:0] $end
$var reg 32 > Reg31[31:0] $end
$upscope $end
$upscope $end
$enddefinitions $end
#0
$dumpvars
1!
1"
b0 #
b0 $
b0 %
b0 &
b0 '
b0 (
b0 )
0*
b0 +
b0 ,
b0 -
b0 .
b0 /
b0 0
b0 1
02
b0 3
b0 4
b0 5
b0 6
b0 7
b0 8
b0 9
b0 :
b0 ;
b0 <
b0 =
b0 >
$end
#5000
0!
#10000
1!
0"
b1000000010000000100000001 )
#15000
0!
#20000
1!
b1 #
b111100000100010000000000000001 )
b100 0
b100 1
#25000
0!
#30000
1!
b10 #
b1111 $
b1 %
b1 &
b10001 '
b10001000000000000000100 7
b100010000000000000001 8
b10001000000000000000100 9
#35000
0!
#40000
1!
b11 #
b0 1
#45000
0!
#50000
1!
b100 #
1*
b100 1
#55000
0!
#60000
1!
b101 #
0*
b100 +
b100 ,
b100 /
b1000 1
#65000
0!
#70000
1!
b110 #
12
#75000
0!
#80000
1!
b111 #
b0 )
b0 /
b0 0
b0 1
02
b1000 3
#85000
0!
#90000
1!
b101000 #
b100 /
b100 1
b10000 4
b1 5
#95000
0!
#100000
1!
b101001 #
#105000
0!
#110000
1!
b101010 #
b1 6
#115000
0!
#120000
1!
b0 #
b10000000000000000 6
#125000
0!
#130000
1!
b1 #
b100 0
b1000 1
b0 4
b0 5
b10000000000000000 :
#135000
0!
#140000
1!
b10 #
b0 $
b0 %
b0 &
b0 '
b0 7
b0 8
b0 9
#145000
0!
#150000
1!
b11 #
b100 1
#155000
0!
#160000
1!
b100 #
1*
b1000 1
#165000
0!
#170000
1!
b101 #
0*
b1000 +
b1000 ,
b1000 /
b0 0
#175000
0!
#180000
1!
b110 #
12
#185000
0!
#190000
1!
b111 #
b0 /
b0 1
02
#195000
0!
#200000
1!
b10011 #
b1000 /
b1000 1
#205000
0!
#210000
1!
b10100 #
#215000
0!
#220000
1!
b10101 #
b0 6
#225000
0!
#230000
1!
b0 #
#235000
0!
#240000
1!
b1 #
b100 0
b1100 1
#245000
0!
#250000
1!
b10 #
#255000
0!
#260000
1!
b11 #
b1000 1
#265000
0!
#270000
1!
b100 #
1*
b1100 1
#275000
0!
#280000
1!
b101 #
0*
b1100 +
b1100 ,
b1100 /
b0 0
#285000
0!
#290000
1!
b110 #
12
#295000
0!
#300000
1!
b111 #
b0 /
b0 1
02
b1100 3
#305000
0!
#310000
1!
b10011 #
b1100 /
b1100 1
#315000
0!
#320000
1!
b10100 #
#325000
0!
#330000
1!
b10101 #
#335000
0!
#340000
1!
b0 #
#345000
0!
#350000
1!
b1 #
b100 0
b10000 1
#355000
0!
#360000
1!
b10 #
#365000
0!
#370000
1!
b11 #
b1100 1
#375000
0!
#380000
1!
b100 #
1*
b10000 1
#385000
0!
#390000
1!
b101 #
0*
b10000 +
b10000 ,
b10000 /
b0 0
#395000
0!
#400000
1!
b110 #
12
#405000
0!
#410000
1!
b111 #
b0 /
b0 1
02
b10000 3
#415000
0!
#420000
1!
b10011 #
b10000 /
b10000 1
#425000
0!
#430000
1!
b10100 #
#435000
0!
#440000
1!
b10101 #
#445000
0!
#450000
1!
b0 #
#455000
0!
#460000
1!
b1 #
b100 0
b10100 1
#465000
0!
#470000
1!
b10 #
#475000
0!
#480000
1!
b11 #
b10000 1
#485000
0!
#490000
1!
b100 #
1*
b10100 1
#495000
0!
#500000
1!
b101 #
0*
b10100 +
b10100 ,
b10100 /
b0 0
#505000
0!
#510000
1!
b110 #
12
#515000
0!
#520000
1!
b111 #
b0 /
b0 1
02
b10100 3
#525000
0!
#530000
1!
b10011 #
b10100 /
b10100 1
#535000
0!
#540000
1!
b10100 #
#545000
0!
#550000
1!
b10101 #
#555000
0!
#560000
1!
b0 #
#565000
0!
#570000
1!
b1 #
b100 0
b11000 1
#575000
0!
#580000
1!
b10 #
#585000
0!
#590000
1!
b11 #
b10100 1
#595000
0!
#600000
1!
b100 #
1*
b11000 1
#605000
0!
#610000
1!
b101 #
0*
b11000 +
b11000 ,
b11000 /
b0 0
#615000
0!
#620000
1!
b110 #
12
#625000
0!
#630000
1!
b111 #
b0 /
b0 1
02
b11000 3
#635000
0!
#640000
1!
b10011 #
b11000 /
b11000 1
#645000
0!
#650000
1!
b10100 #
#655000
0!
#660000
1!
b10101 #
#665000
0!
#670000
1!
b0 #
#675000
0!
#680000
1!
b1 #
b100 0
b11100 1
#685000
0!
#690000
1!
b10 #
#695000
0!
#700000
1!
b11 #
b11000 1
#705000
0!
#710000
1!
b100 #
1*
b11100 1
#715000
0!
#720000
1!
b101 #
0*
b11100 +
b11100 ,
b11100 /
b0 0
#725000
0!
#730000
1!
b110 #
12
#735000
0!
#740000
1!
b111 #
b0 /
b0 1
02
b11100 3
#745000
0!
#750000
1!
b10011 #
b11100 /
b11100 1
#755000
0!
#760000
1!
b10100 #
#765000
0!
#770000
1!
b10101 #
#775000
0!
#780000
1!
b0 #
#785000
0!
#790000
1!
b1 #
b100 0
b100000 1
#795000
0!
#800000
1!
b10 #
#805000
0!
#810000
1!
b11 #
b11100 1
#815000
0!
#820000
1!
b100 #
1*
b100000 1
#825000
0!
#830000
1!
b101 #
0*
b100000 +
b100000 ,
b100000 /
b0 0
#835000
0!
#840000
1!
b110 #
12
#845000
0!
#850000
1!
b111 #
b0 /
b0 1
02
b100000 3
#855000
0!
#860000
1!
b10011 #
b100000 /
b100000 1
#865000
0!
#870000
1!
b10100 #
#875000
0!
#880000
1!
b10101 #
#885000
0!
#890000
1!
b0 #
#895000
0!
#900000
1!
b1 #
b100 0
b100100 1
#905000
0!
#910000
1!
b10 #
#915000
0!
#920000
1!
b11 #
b100000 1
#925000
0!
#930000
1!
b100 #
1*
b100100 1
#935000
0!
#940000
1!
b101 #
0*
b100100 +
b100100 ,
b100100 /
b0 0
#945000
0!
#950000
1!
b110 #
12
#955000
0!
#960000
1!
b111 #
b0 /
b0 1
02
b100100 3
#965000
0!
#970000
1!
b10011 #
b100100 /
b100100 1
#975000
0!
#980000
1!
b10100 #
#985000
0!
#990000
1!
b10101 #
