ProjetoCPU.vcd
$comment
Copyright (C) 1991-2010 Altera Corporation
Your use of Altera Corporation's design tools, logic functions 
and other software and tools, and its AMPP partner logic 
functions, and any output files from any of the foregoing 
(including device programming or simulation files), and any 
associated documentation or information are expressly subject 
to the terms and conditions of the Altera Program License 
Subscription Agreement, Altera MegaCore Function License 
Agreement, or other applicable license agreement, including, 
without limitation, that your use is for the sole purpose of 
programming logic devices manufactured by Altera and sold by 
Altera or its authorized distributors.  Please refer to the 
applicable agreement for further details.
$end

$date 
  10/18/2019 08:42:01 
$end
$version 
 QUARTUS_VCD_EXPORT 1.0 
$end
$timescale
  1 ps
$end
$scope module Hardware $end
$var reg 1 ! clk $end
$var reg 1 " ResetSignal $end
$var reg 7 # state[6:0] $end
$var reg 6 $ opcode[5:0] $end
$var reg 16 % Inst15a0[15:0] $end
$var reg 6 & funct[5:0] $end
$var reg 5 ' Inst20a16[4:0] $end
$var reg 5 ( Inst25a21[4:0] $end
$var reg 32 ) MDR[31:0] $end
$var reg 1 * PC_Write $end
$var reg 32 + PC[31:0] $end
$var reg 32 , EPC[31:0] $end
$var reg 32 - RegB[31:0] $end
$var reg 32 . SrcA[31:0] $end
$var reg 32 / SrcB[31:0] $end
$var reg 32 0 S[31:0] $end
$var reg 1 1 AluOutWritel $end
$var reg 32 2 ALUOut[31:0] $end
$var reg 1 3 overfloww $end
$var reg 1 4 RegControll $end
$var reg 32 5 DataSrcc[31:0] $end
$var reg 1 6 LSS[1] $end
$var reg 1 7 LSS[0] $end
$scope module Reg_Control $end
$var reg 32 8 Reg15[31:0] $end
$var reg 32 9 Reg16[31:0] $end
$var reg 32 : Reg17[31:0] $end
$var reg 32 ; Reg29[31:0] $end
$var reg 32 < Reg31[31:0] $end
$upscope $end
$upscope $end
$enddefinitions $end
#0
$dumpvars
1!
1"
b0 #
b0 $
b0 %
b0 &
b0 '
b0 (
b0 )
0*
b0 +
b0 ,
b0 -
b0 .
b0 /
b0 0
01
b0 2
03
04
b0 5
06
07
b0 8
b0 9
b0 :
b0 ;
b0 <
$end
#5000
0!
#10000
1!
0"
#15000
0!
#20000
1!
b1 #
b11111111111111111111111111111111 )
b100 /
b100 0
b11111111 5
#25000
0!
#30000
1!
b10 #
b1000 $
b1111111111111111 %
b111111 &
b10001 '
b1111 (
b100001111100011111111111111111 )
#35000
0!
#40000
1!
b11 #
b0 0
#45000
0!
#50000
1!
b100 #
1*
b100 0
#55000
0!
#60000
1!
b101 #
0*
b100 +
b100 ,
b100 .
b11111111111111111111111111111100 /
b0 0
#65000
0!
#70000
1!
b110 #
11
#75000
0!
#80000
1!
b111 #
b0 .
b0 /
01
#85000
0!
#90000
1!
b1101 #
b10000000000100000000000000000000 )
b11111111111111111111111111111111 /
b11111111111111111111111111111111 0
b0 5
#95000
0!
#100000
1!
b1110 #
11
#105000
0!
#110000
1!
b1111 #
b100 .
b0 /
b100 0
01
b11111111111111111111111111111111 2
#115000
0!
#120000
1!
b0 #
14
#125000
0!
#130000
1!
b1 #
b100 /
b1000 0
04
b11111111111111111111111111111111 :
#135000
0!
#140000
1!
b10 #
b100000 $
b0 %
b0 &
b10000 '
b0 (
#145000
0!
#150000
1!
b11 #
b100 0
#155000
0!
#160000
1!
b100 #
1*
b1000 0
#165000
0!
#170000
1!
b101 #
0*
b1000 +
b1000 ,
b1000 .
b0 /
#175000
0!
#180000
1!
b110 #
11
#185000
0!
#190000
1!
b111 #
b0 .
b0 0
01
b1000 2
#195000
0!
#200000
1!
b111011 #
b10000100000100000000000000000000 )
11
#205000
0!
#210000
1!
b111101 #
01
b0 2
#215000
0!
#220000
1!
b111110 #
#225000
0!
#230000
1!
b111111 #
b100001111100011111111111111111 )
14
b11111111 5
#235000
0!
#240000
1!
b111100 #
04
b11111111 9
#245000
0!
#250000
1!
b0 #
#255000
0!
#260000
1!
b1 #
b1000 .
b100 /
b1100 0
#265000
0!
#270000
1!
b10 #
b1000 $
b1111111111111111 %
b111111 &
b10001 '
b1111 (
#275000
0!
#280000
1!
b11 #
b1000 0
#285000
0!
#290000
1!
b100 #
b100001 $
b0 %
b0 &
b10000 '
b0 (
b10000100000100000000000000000000 )
1*
b1100 0
b0 5
#295000
0!
#300000
1!
b101 #
0*
b1100 +
b1100 ,
b1100 .
b0 /
#305000
0!
#310000
1!
b110 #
11
#315000
0!
#320000
1!
b111 #
b0 .
b0 0
01
b1100 2
#325000
0!
#330000
1!
b1000000 #
b10001100000100000000000000000000 )
b11111111 -
11
#335000
0!
#340000
1!
b1000010 #
01
b0 2
17
#345000
0!
#350000
1!
b1000011 #
#355000
0!
#360000
1!
b1000100 #
b100001111100011111111111111111 )
14
b1111111111111111 5
#365000
0!
#370000
1!
b1000001 #
04
b1111111111111111 9
#375000
0!
#380000
1!
b0 #
#385000
0!
#390000
1!
b1 #
b1100 .
b100 /
b10000 0
b11111111 5
07
#395000
0!
#400000
1!
b10 #
b1000 $
b1111111111111111 %
b111111 &
b10001 '
b1111 (
#405000
0!
#410000
1!
b11 #
b1100 0
#415000
0!
#420000
1!
b100 #
b100011 $
b0 %
b0 &
b10000 '
b0 (
b10001100000100000000000000000000 )
1*
b10000 0
b0 5
#425000
0!
#430000
1!
b101 #
0*
b10000 +
b10000 ,
b10000 .
b0 /
#435000
0!
#440000
1!
b110 #
11
#445000
0!
#450000
1!
b111 #
b0 .
b11111111 /
b0 0
01
b10000 2
#455000
0!
#460000
1!
b1000101 #
b0 )
b1111111111111111 -
b0 /
11
#465000
0!
#470000
1!
b1000111 #
01
b0 2
16
#475000
0!
#480000
1!
b1001000 #
#485000
0!
#490000
1!
b1001001 #
b100001111100011111111111111111 )
14
b100001111100011111111111111111 5
#495000
0!
#500000
1!
b1000110 #
04
b100001111100011111111111111111 9
#505000
0!
#510000
1!
b0 #
#515000
0!
#520000
1!
b1 #
b10000 .
b100 /
b10100 0
b11111111 5
06
#525000
0!
#530000
1!
b10 #
b1000 $
b1111111111111111 %
b111111 &
b10001 '
b1111 (
#535000
0!
#540000
1!
b11 #
b10000 0
#545000
0!
#550000
1!
b100 #
b0 $
b0 %
b0 &
b0 '
b0 (
b0 )
1*
b10100 0
b0 5
#555000
0!
#560000
1!
b101 #
0*
b10100 +
b10100 ,
b10100 .
b0 /
#565000
0!
#570000
1!
b110 #
11
#575000
0!
#580000
1!
b111 #
b0 .
b1111111111111111 /
b0 0
01
b10100 2
#585000
0!
#590000
1!
b10011 #
b0 -
b10100 .
b0 /
b10100 0
#595000
0!
#600000
1!
b10100 #
#605000
0!
#610000
1!
b10101 #
#615000
0!
#620000
1!
b0 #
14
#625000
0!
#630000
1!
b1 #
b100 /
b11000 0
04
#635000
0!
#640000
1!
b10 #
#645000
0!
#650000
1!
b11 #
b10100 0
#655000
0!
#660000
1!
b100 #
1*
b11000 0
#665000
0!
#670000
1!
b101 #
0*
b11000 +
b11000 ,
b11000 .
b0 /
#675000
0!
#680000
1!
b110 #
11
#685000
0!
#690000
1!
b111 #
b0 .
b0 0
01
b11000 2
#695000
0!
#700000
1!
b10011 #
b11000 .
b11000 0
#705000
0!
#710000
1!
b10100 #
#715000
0!
#720000
1!
b10101 #
#725000
0!
#730000
1!
b0 #
14
#735000
0!
#740000
1!
b1 #
b100 /
b11100 0
04
#745000
0!
#750000
1!
b10 #
#755000
0!
#760000
1!
b11 #
b11000 0
#765000
0!
#770000
1!
b100 #
1*
b11100 0
#775000
0!
#780000
1!
b101 #
0*
b11100 +
b11100 ,
b11100 .
b0 /
#785000
0!
#790000
1!
b110 #
11
#795000
0!
#800000
1!
b111 #
b0 .
b0 0
01
b11100 2
#805000
0!
#810000
1!
b10011 #
b11100 .
b11100 0
#815000
0!
#820000
1!
b10100 #
#825000
0!
#830000
1!
b10101 #
#835000
0!
#840000
1!
b0 #
14
#845000
0!
#850000
1!
b1 #
b100 /
b100000 0
04
#855000
0!
#860000
1!
b10 #
#865000
0!
#870000
1!
b11 #
b11100 0
#875000
0!
#880000
1!
b100 #
1*
b100000 0
#885000
0!
#890000
1!
b101 #
0*
b100000 +
b100000 ,
b100000 .
b0 /
#895000
0!
#900000
1!
b110 #
11
#905000
0!
#910000
1!
b111 #
b0 .
b0 0
01
b100000 2
#915000
0!
#920000
1!
b10011 #
b100000 .
b100000 0
#925000
0!
#930000
1!
b10100 #
#935000
0!
#940000
1!
b10101 #
#945000
0!
#950000
1!
b0 #
14
#955000
0!
#960000
1!
b1 #
b100 /
b100100 0
04
#965000
0!
#970000
1!
b10 #
#975000
0!
#980000
1!
b11 #
b100000 0
#985000
0!
#990000
1!
b100 #
1*
b100100 0
