ProjetoCPU.vcd
$comment
Copyright (C) 1991-2010 Altera Corporation
Your use of Altera Corporation's design tools, logic functions 
and other software and tools, and its AMPP partner logic 
functions, and any output files from any of the foregoing 
(including device programming or simulation files), and any 
associated documentation or information are expressly subject 
to the terms and conditions of the Altera Program License 
Subscription Agreement, Altera MegaCore Function License 
Agreement, or other applicable license agreement, including, 
without limitation, that your use is for the sole purpose of 
programming logic devices manufactured by Altera and sold by 
Altera or its authorized distributors.  Please refer to the 
applicable agreement for further details.
$end

$date 
  10/13/2019 18:30:54 
$end
$version 
 QUARTUS_VCD_EXPORT 1.0 
$end
$timescale
  1 ps
$end
$scope module Hardware $end
$var reg 1 ! clk $end
$var reg 7 " state[6:0] $end
$var reg 6 # opcode[5:0] $end
$var reg 16 $ Inst15a0[15:0] $end
$var reg 6 % funct[5:0] $end
$var reg 5 & Inst20a16[4:0] $end
$var reg 5 ' Inst25a21[4:0] $end
$var reg 32 ( MDR[31:0] $end
$var reg 32 ) PC[31:0] $end
$var reg 32 * EPC[31:0] $end
$var reg 32 + RegA[31:0] $end
$var reg 32 , RegB[31:0] $end
$var reg 32 - SrcA[31:0] $end
$var reg 32 . SrcB[31:0] $end
$var reg 32 / S[31:0] $end
$var reg 1 0 AluOutWritel $end
$var reg 32 1 ALUOut[31:0] $end
$var reg 1 2 reset $end
$scope module Reg_Control $end
$var reg 32 3 Reg15[31:0] $end
$var reg 32 4 Reg16[31:0] $end
$var reg 32 5 Reg17[31:0] $end
$var reg 32 6 Reg0[31:0] $end
$var reg 32 7 Reg1[31:0] $end
$var reg 32 8 Reg2[31:0] $end
$var reg 32 9 Reg3[31:0] $end
$var reg 32 : Reg4[31:0] $end
$var reg 32 ; Reg5[31:0] $end
$var reg 32 < Reg6[31:0] $end
$var reg 32 = Reg7[31:0] $end
$var reg 32 > Reg8[31:0] $end
$var reg 32 ? Reg9[31:0] $end
$var reg 32 @ Reg10[31:0] $end
$var reg 32 A Reg11[31:0] $end
$var reg 32 B Reg12[31:0] $end
$var reg 32 C Reg13[31:0] $end
$var reg 32 D Reg14[31:0] $end
$var reg 32 E Reg18[31:0] $end
$var reg 32 F Reg19[31:0] $end
$var reg 32 G Reg20[31:0] $end
$var reg 32 H Reg21[31:0] $end
$var reg 32 I Reg22[31:0] $end
$var reg 32 J Reg23[31:0] $end
$var reg 32 K Reg24[31:0] $end
$var reg 32 L Reg25[31:0] $end
$var reg 32 M Reg26[31:0] $end
$var reg 32 N Reg27[31:0] $end
$var reg 32 O Reg28[31:0] $end
$var reg 32 P Reg29[31:0] $end
$var reg 32 Q Reg30[31:0] $end
$var reg 32 R Reg31[31:0] $end
$upscope $end
$upscope $end
$enddefinitions $end
#0
$dumpvars
1!
b0 "
b0 #
b0 $
b0 %
b0 &
b0 '
b0 (
b0 )
b0 *
b0 +
b0 ,
b0 -
b0 .
b0 /
00
b0 1
12
b0 3
b0 4
b0 5
b0 6
b0 7
b0 8
b0 9
b0 :
b0 ;
b0 <
b0 =
b0 >
b0 ?
b0 @
b0 A
b0 B
b0 C
b0 D
b0 E
b0 F
b0 G
b0 H
b0 I
b0 J
b0 K
b0 L
b0 M
b0 N
b0 O
b0 P
b0 Q
b0 R
$end
#5000
0!
#10000
1!
b1 "
b100000001000000010000000100000 (
02
#15000
0!
#20000
1!
b10 "
b1000 #
b10000000100000 $
b100000 %
b1 '
b1111100001000100000100000 (
b100 .
b100 /
12
#25000
0!
#30000
1!
b11 "
b0 #
b1000100000100000 $
b10000 &
b1111 '
b0 /
02
#35000
0!
#40000
1!
b100 "
b100 )
b100 /
12
#45000
0!
#50000
1!
b101 "
b100 *
b100 -
b1000 /
02
#55000
0!
#60000
1!
b110 "
b11111111111111100010000010000000 .
b11111111111111100010000010000100 /
10
12
#65000
0!
#70000
1!
b111 "
b0 (
00
b11111111111111100010000010000100 1
02
#75000
0!
#80000
1!
b1000 "
12
#85000
0!
#90000
1!
b1011 "
b0 -
b0 .
b0 /
10
02
#95000
0!
#100000
1!
b1100 "
00
b0 1
12
#105000
0!
#110000
1!
b0 "
b100 -
b100 /
02
#115000
0!
#120000
1!
b1 "
12
#125000
0!
#130000
1!
b10 "
b0 $
b0 %
b0 &
b0 '
b100 .
b1000 /
02
#135000
0!
#140000
1!
b11 "
b100 /
12
#145000
0!
#150000
1!
b100 "
b1000 )
b1000 /
02
#155000
0!
#160000
1!
b101 "
b1000 *
b1000 -
b1100 /
12
#165000
0!
#170000
1!
b110 "
b0 .
b1000 /
10
02
#175000
0!
#180000
1!
b111 "
00
b1000 1
12
#185000
0!
#190000
1!
02
#195000
0!
#200000
1!
12
#205000
0!
#210000
1!
02
#215000
0!
#220000
1!
12
#225000
0!
#230000
1!
02
#235000
0!
#240000
1!
12
#245000
0!
#250000
1!
02
#255000
0!
#260000
1!
12
#265000
0!
#270000
1!
02
#275000
0!
#280000
1!
12
#285000
0!
#290000
1!
02
#295000
0!
#300000
1!
12
#305000
0!
#310000
1!
02
#315000
0!
#320000
1!
12
#325000
0!
#330000
1!
02
#335000
0!
#340000
1!
12
#345000
0!
#350000
1!
02
#355000
0!
#360000
1!
12
#365000
0!
#370000
1!
02
#375000
0!
#380000
1!
12
#385000
0!
#390000
1!
02
#395000
0!
#400000
1!
12
#405000
0!
#410000
1!
02
#415000
0!
#420000
1!
12
#425000
0!
#430000
1!
02
#435000
0!
#440000
1!
12
#445000
0!
#450000
1!
02
#455000
0!
#460000
1!
12
#465000
0!
#470000
1!
02
#475000
0!
#480000
1!
12
#485000
0!
#490000
1!
02
#495000
0!
#500000
1!
12
#505000
0!
#510000
1!
02
#515000
0!
#520000
1!
12
#525000
0!
#530000
1!
02
#535000
0!
#540000
1!
12
#545000
0!
#550000
1!
02
#555000
0!
#560000
1!
12
#565000
0!
#570000
1!
02
#575000
0!
#580000
1!
12
#585000
0!
#590000
1!
02
#595000
0!
#600000
1!
12
#605000
0!
#610000
1!
02
#615000
0!
#620000
1!
12
#625000
0!
#630000
1!
02
#635000
0!
#640000
1!
12
#645000
0!
#650000
1!
02
#655000
0!
#660000
1!
12
#665000
0!
#670000
1!
02
#675000
0!
#680000
1!
12
#685000
0!
#690000
1!
02
#695000
0!
#700000
1!
12
#705000
0!
#710000
1!
02
#715000
0!
#720000
1!
12
#725000
0!
#730000
1!
02
#735000
0!
#740000
1!
12
#745000
0!
#750000
1!
02
#755000
0!
#760000
1!
12
#765000
0!
#770000
1!
02
#775000
0!
#780000
1!
12
#785000
0!
#790000
1!
02
#795000
0!
#800000
1!
12
#805000
0!
#810000
1!
02
#815000
0!
#820000
1!
12
#825000
0!
#830000
1!
02
#835000
0!
#840000
1!
12
#845000
0!
#850000
1!
02
#855000
0!
#860000
1!
12
#865000
0!
#870000
1!
02
#875000
0!
#880000
1!
12
#885000
0!
#890000
1!
02
#895000
0!
#900000
1!
12
#905000
0!
#910000
1!
02
#915000
0!
#920000
1!
12
#925000
0!
#930000
1!
02
#935000
0!
#940000
1!
12
#945000
0!
#950000
1!
02
#955000
0!
#960000
1!
12
#965000
0!
#970000
1!
02
#975000
0!
#980000
1!
12
#985000
0!
#990000
1!
02
