ProjetoCPU.vcd
$comment
Copyright (C) 1991-2010 Altera Corporation
Your use of Altera Corporation's design tools, logic functions 
and other software and tools, and its AMPP partner logic 
functions, and any output files from any of the foregoing 
(including device programming or simulation files), and any 
associated documentation or information are expressly subject 
to the terms and conditions of the Altera Program License 
Subscription Agreement, Altera MegaCore Function License 
Agreement, or other applicable license agreement, including, 
without limitation, that your use is for the sole purpose of 
programming logic devices manufactured by Altera and sold by 
Altera or its authorized distributors.  Please refer to the 
applicable agreement for further details.
$end

$date 
  10/14/2019 13:10:10 
$end
$version 
 QUARTUS_VCD_EXPORT 1.0 
$end
$timescale
  1 ps
$end
$scope module Hardware $end
$var reg 1 ! clk $end
$var reg 1 " ResetSignal $end
$var reg 7 # state[6:0] $end
$var reg 6 $ opcode[5:0] $end
$var reg 16 % Inst15a0[15:0] $end
$var reg 6 & funct[5:0] $end
$var reg 5 ' Inst20a16[4:0] $end
$var reg 5 ( Inst25a21[4:0] $end
$var reg 32 ) MDR[31:0] $end
$var reg 32 * PC[31:0] $end
$var reg 32 + EPC[31:0] $end
$var reg 32 , RegA[31:0] $end
$var reg 32 - RegB[31:0] $end
$var reg 32 . SrcA[31:0] $end
$var reg 32 / SrcB[31:0] $end
$var reg 32 0 S[31:0] $end
$var reg 1 1 AluOutWritel $end
$var reg 32 2 ALUOut[31:0] $end
$scope module Reg_Control $end
$var reg 32 3 Reg17[31:0] $end
$var reg 32 4 Reg15[31:0] $end
$var reg 32 5 Reg16[31:0] $end
$upscope $end
$upscope $end
$enddefinitions $end
#0
$dumpvars
1!
1"
b0 #
b0 $
b0 %
b0 &
b0 '
b0 (
b0 )
b0 *
b0 +
b0 ,
b0 -
b0 .
b0 /
b0 0
01
b0 2
b0 3
b0 4
b0 5
$end
#5000
0!
#10000
1!
0"
b11000000110000001100000011 )
#15000
0!
#20000
1!
b1 #
b100000000011110000000000000011 )
#25000
0!
#30000
1!
b10 #
b1000 $
b11 %
b11 &
b1111 '
b100 /
b100 0
#35000
0!
#40000
1!
b11 #
b0 0
#45000
0!
#50000
1!
b100 #
b100 *
b100 0
#55000
0!
#60000
1!
b101 #
b100 +
b100 .
b1000 0
#65000
0!
#70000
1!
b110 #
b1100 /
b10000 0
11
#75000
0!
#80000
1!
b111 #
b100000000100000000000000001001 )
b100 0
01
b10000 2
#85000
0!
#90000
1!
b1101 #
b0 .
b0 /
b0 0
#95000
0!
#100000
1!
b1110 #
b11 /
b11 0
11
#105000
0!
#110000
1!
b1111 #
b0 0
01
b11 2
#115000
0!
#120000
1!
b0 #
b100 .
b0 /
b100 0
#125000
0!
#130000
1!
b1 #
b11 4
#135000
0!
#140000
1!
b10 #
b1001 %
b1001 &
b10000 '
b100 /
b1000 0
#145000
0!
#150000
1!
b11 #
b100 0
#155000
0!
#160000
1!
b100 #
b1000 *
b1000 0
#165000
0!
#170000
1!
b101 #
b1000 +
b1000 .
b1100 0
#175000
0!
#180000
1!
b110 #
b100100 /
b101100 0
11
#185000
0!
#190000
1!
b111 #
b1111100001000100000100000 )
b1000 0
01
b101100 2
#195000
0!
#200000
1!
b1101 #
b0 .
b0 /
b0 0
#205000
0!
#210000
1!
b1110 #
b1001 /
b1001 0
11
#215000
0!
#220000
1!
b1111 #
b0 0
01
b1001 2
#225000
0!
#230000
1!
b0 #
b1000 .
b0 /
b1000 0
#235000
0!
#240000
1!
b1 #
b1001 5
#245000
0!
#250000
1!
b10 #
b0 $
b1000100000100000 %
b100000 &
b1111 (
b100 /
b1100 0
#255000
0!
#260000
1!
b11 #
b1000 0
#265000
0!
#270000
1!
b100 #
b1100 *
b1100 0
#275000
0!
#280000
1!
b101 #
b1100 +
b1100 .
b10000 0
#285000
0!
#290000
1!
b110 #
b11111111111111100010000010000000 /
b11111111111111100010000010001100 0
11
#295000
0!
#300000
1!
b111 #
b1111100001000100000100010 )
b1100 0
01
b11111111111111100010000010001100 2
#305000
0!
#310000
1!
b1000 #
b11 ,
b1001 -
b0 .
b0 /
b0 0
#315000
0!
#320000
1!
b1011 #
b11 .
b1001 /
b1100 0
11
#325000
0!
#330000
1!
b1100 #
b11 0
01
b1100 2
#335000
0!
#340000
1!
b0 #
b1100 .
b1100 0
#345000
0!
#350000
1!
b1 #
b10101 0
b1100 3
#355000
0!
#360000
1!
b10 #
b1000100000100010 %
b100010 &
b100 /
b10000 0
#365000
0!
#370000
1!
b11 #
b1100 0
#375000
0!
#380000
1!
b100 #
b10000 *
b10000 0
#385000
0!
#390000
1!
b101 #
b10000 +
b10000 .
b10100 0
#395000
0!
#400000
1!
b110 #
b11111111111111100010000010001000 /
b11111111111111100010000010011000 0
11
#405000
0!
#410000
1!
b111 #
b1111100001000100000100100 )
b10000 0
01
b11111111111111100010000010011000 2
#415000
0!
#420000
1!
b1001 #
b11 .
b1001 /
b11111111111111111111111111111010 0
#425000
0!
#430000
1!
b1011 #
11
#435000
0!
#440000
1!
b1100 #
b11 0
01
b11111111111111111111111111111010 2
#445000
0!
#450000
1!
b0 #
b10000 .
b10000 0
#455000
0!
#460000
1!
b1 #
b11001 0
b11111111111111111111111111111010 3
#465000
0!
#470000
1!
b10 #
b1000100000100100 %
b100100 &
b100 /
b10100 0
#475000
0!
#480000
1!
b11 #
b10000 0
#485000
0!
#490000
1!
b100 #
b10100 *
b10100 0
#495000
0!
#500000
1!
b101 #
b10100 +
b10100 .
b11000 0
#505000
0!
#510000
1!
b110 #
b11111111111111100010000010010000 /
b11111111111111100010000010100100 0
11
#515000
0!
#520000
1!
b111 #
b0 )
b10100 0
01
b11111111111111100010000010100100 2
#525000
0!
#530000
1!
b1010 #
b11 .
b1001 /
b1 0
#535000
0!
#540000
1!
b1011 #
11
#545000
0!
#550000
1!
b1100 #
b11 0
01
b1 2
#555000
0!
#560000
1!
b0 #
b10100 .
b10100 0
#565000
0!
#570000
1!
b1 #
b11101 0
b1 3
#575000
0!
#580000
1!
b10 #
b0 %
b0 &
b0 '
b0 (
b100 /
b11000 0
#585000
0!
#590000
1!
b11 #
b10100 0
#595000
0!
#600000
1!
b100 #
b11000 *
b11000 0
#605000
0!
#610000
1!
b101 #
b11000 +
b11000 .
b11100 0
#615000
0!
#620000
1!
b110 #
b0 /
b11000 0
11
#625000
0!
#630000
1!
b111 #
01
b11000 2
#635000
0!
#640000
1!
b0 ,
b0 -
b11 .
b1001 /
b11 0
#645000
0!
#650000
1!
b0 .
b0 /
b0 0
